<svg width="261" height="122" viewBox="0 0 261 122" fill="none" xmlns="http://www.w3.org/2000/svg">
<path d="M0 0H1V122H0V0Z" fill="black" fill-opacity="0.12"/>
<path d="M30.2168 98.752V101.875C30.1113 102.031 29.9434 102.207 29.7129 102.402C29.4824 102.594 29.1641 102.762 28.7578 102.906C28.3555 103.047 27.8359 103.117 27.1992 103.117C26.6797 103.117 26.2012 103.027 25.7637 102.848C25.3301 102.664 24.9531 102.398 24.6328 102.051C24.3164 101.699 24.0703 101.273 23.8945 100.773C23.7227 100.27 23.6367 99.6992 23.6367 99.0625V98.4004C23.6367 97.7637 23.7109 97.1953 23.8594 96.6953C24.0117 96.1953 24.2344 95.7715 24.5273 95.4238C24.8203 95.0723 25.1797 94.8066 25.6055 94.627C26.0312 94.4434 26.5195 94.3516 27.0703 94.3516C27.7227 94.3516 28.2676 94.4648 28.7051 94.6914C29.1465 94.9141 29.4902 95.2227 29.7363 95.6172C29.9863 96.0117 30.1465 96.4609 30.2168 96.9648H29.0859C29.0352 96.6562 28.9336 96.375 28.7812 96.1211C28.6328 95.8672 28.4199 95.6641 28.1426 95.5117C27.8652 95.3555 27.5078 95.2773 27.0703 95.2773C26.6758 95.2773 26.334 95.3496 26.0449 95.4941C25.7559 95.6387 25.5176 95.8457 25.3301 96.1152C25.1426 96.3848 25.002 96.7109 24.9082 97.0938C24.8184 97.4766 24.7734 97.9082 24.7734 98.3887V99.0625C24.7734 99.5547 24.8301 99.9941 24.9434 100.381C25.0605 100.768 25.2266 101.098 25.4414 101.371C25.6562 101.641 25.9121 101.846 26.209 101.986C26.5098 102.127 26.8418 102.197 27.2051 102.197C27.6074 102.197 27.9336 102.164 28.1836 102.098C28.4336 102.027 28.6289 101.945 28.7695 101.852C28.9102 101.754 29.0176 101.662 29.0918 101.576V99.666H27.1172V98.752H30.2168ZM34.5586 103.117C34.1172 103.117 33.7168 103.043 33.3574 102.895C33.002 102.742 32.6953 102.529 32.4375 102.256C32.1836 101.982 31.9883 101.658 31.8516 101.283C31.7148 100.908 31.6465 100.498 31.6465 100.053V99.8066C31.6465 99.291 31.7227 98.832 31.875 98.4297C32.0273 98.0234 32.2344 97.6797 32.4961 97.3984C32.7578 97.1172 33.0547 96.9043 33.3867 96.7598C33.7188 96.6152 34.0625 96.543 34.418 96.543C34.8711 96.543 35.2617 96.6211 35.5898 96.7773C35.9219 96.9336 36.1934 97.1523 36.4043 97.4336C36.6152 97.7109 36.7715 98.0391 36.873 98.418C36.9746 98.793 37.0254 99.2031 37.0254 99.6484V100.135H32.291V99.25H35.9414V99.168C35.9258 98.8867 35.8672 98.6133 35.7656 98.3477C35.668 98.082 35.5117 97.8633 35.2969 97.6914C35.082 97.5195 34.7891 97.4336 34.418 97.4336C34.1719 97.4336 33.9453 97.4863 33.7383 97.5918C33.5312 97.6934 33.3535 97.8457 33.2051 98.0488C33.0566 98.252 32.9414 98.5 32.8594 98.793C32.7773 99.0859 32.7363 99.4238 32.7363 99.8066V100.053C32.7363 100.354 32.7773 100.637 32.8594 100.902C32.9453 101.164 33.0684 101.395 33.2285 101.594C33.3926 101.793 33.5898 101.949 33.8203 102.062C34.0547 102.176 34.3203 102.232 34.6172 102.232C35 102.232 35.3242 102.154 35.5898 101.998C35.8555 101.842 36.0879 101.633 36.2871 101.371L36.9434 101.893C36.8066 102.1 36.6328 102.297 36.4219 102.484C36.2109 102.672 35.9512 102.824 35.6426 102.941C35.3379 103.059 34.9766 103.117 34.5586 103.117ZM40.9453 96.6602V97.4922H37.5176V96.6602H40.9453ZM38.6777 95.1191H39.7617V101.43C39.7617 101.645 39.7949 101.807 39.8613 101.916C39.9277 102.025 40.0137 102.098 40.1191 102.133C40.2246 102.168 40.3379 102.186 40.459 102.186C40.5488 102.186 40.6426 102.178 40.7402 102.162C40.8418 102.143 40.918 102.127 40.9688 102.115L40.9746 103C40.8887 103.027 40.7754 103.053 40.6348 103.076C40.498 103.104 40.332 103.117 40.1367 103.117C39.8711 103.117 39.627 103.064 39.4043 102.959C39.1816 102.854 39.0039 102.678 38.8711 102.432C38.7422 102.182 38.6777 101.846 38.6777 101.424V95.1191ZM47.8242 103.117C47.3828 103.117 46.9824 103.043 46.623 102.895C46.2676 102.742 45.9609 102.529 45.7031 102.256C45.4492 101.982 45.2539 101.658 45.1172 101.283C44.9805 100.908 44.9121 100.498 44.9121 100.053V99.8066C44.9121 99.291 44.9883 98.832 45.1406 98.4297C45.293 98.0234 45.5 97.6797 45.7617 97.3984C46.0234 97.1172 46.3203 96.9043 46.6523 96.7598C46.9844 96.6152 47.3281 96.543 47.6836 96.543C48.1367 96.543 48.5273 96.6211 48.8555 96.7773C49.1875 96.9336 49.459 97.1523 49.6699 97.4336C49.8809 97.7109 50.0371 98.0391 50.1387 98.418C50.2402 98.793 50.291 99.2031 50.291 99.6484V100.135H45.5566V99.25H49.207V99.168C49.1914 98.8867 49.1328 98.6133 49.0312 98.3477C48.9336 98.082 48.7773 97.8633 48.5625 97.6914C48.3477 97.5195 48.0547 97.4336 47.6836 97.4336C47.4375 97.4336 47.2109 97.4863 47.0039 97.5918C46.7969 97.6934 46.6191 97.8457 46.4707 98.0488C46.3223 98.252 46.207 98.5 46.125 98.793C46.043 99.0859 46.002 99.4238 46.002 99.8066V100.053C46.002 100.354 46.043 100.637 46.125 100.902C46.2109 101.164 46.334 101.395 46.4941 101.594C46.6582 101.793 46.8555 101.949 47.0859 102.062C47.3203 102.176 47.5859 102.232 47.8828 102.232C48.2656 102.232 48.5898 102.154 48.8555 101.998C49.1211 101.842 49.3535 101.633 49.5527 101.371L50.209 101.893C50.0723 102.1 49.8984 102.297 49.6875 102.484C49.4766 102.672 49.2168 102.824 48.9082 102.941C48.6035 103.059 48.2422 103.117 47.8242 103.117ZM52.2891 96.6602L53.6777 98.9688L55.084 96.6602H56.3555L54.2812 99.7891L56.4199 103H55.166L53.7012 100.621L52.2363 103H50.9766L53.1094 99.7891L51.041 96.6602H52.2891ZM59.9297 102.227C60.1875 102.227 60.4258 102.174 60.6445 102.068C60.8633 101.963 61.043 101.818 61.1836 101.635C61.3242 101.447 61.4043 101.234 61.4238 100.996H62.4551C62.4355 101.371 62.3086 101.721 62.0742 102.045C61.8438 102.365 61.541 102.625 61.166 102.824C60.791 103.02 60.3789 103.117 59.9297 103.117C59.4531 103.117 59.0371 103.033 58.6816 102.865C58.3301 102.697 58.0371 102.467 57.8027 102.174C57.5723 101.881 57.3984 101.545 57.2812 101.166C57.168 100.783 57.1113 100.379 57.1113 99.9531V99.707C57.1113 99.2812 57.168 98.8789 57.2812 98.5C57.3984 98.1172 57.5723 97.7793 57.8027 97.4863C58.0371 97.1934 58.3301 96.9629 58.6816 96.7949C59.0371 96.627 59.4531 96.543 59.9297 96.543C60.4258 96.543 60.8594 96.6445 61.2305 96.8477C61.6016 97.0469 61.8926 97.3203 62.1035 97.668C62.3184 98.0117 62.4355 98.4023 62.4551 98.8398H61.4238C61.4043 98.5781 61.3301 98.3418 61.2012 98.1309C61.0762 97.9199 60.9043 97.752 60.6855 97.627C60.4707 97.498 60.2188 97.4336 59.9297 97.4336C59.5977 97.4336 59.3184 97.5 59.0918 97.6328C58.8691 97.7617 58.6914 97.9375 58.5586 98.1602C58.4297 98.3789 58.3359 98.623 58.2773 98.8926C58.2227 99.1582 58.1953 99.4297 58.1953 99.707V99.9531C58.1953 100.23 58.2227 100.504 58.2773 100.773C58.332 101.043 58.4238 101.287 58.5527 101.506C58.6855 101.725 58.8633 101.9 59.0859 102.033C59.3125 102.162 59.5938 102.227 59.9297 102.227ZM66.3047 103.117C65.8633 103.117 65.4629 103.043 65.1035 102.895C64.748 102.742 64.4414 102.529 64.1836 102.256C63.9297 101.982 63.7344 101.658 63.5977 101.283C63.4609 100.908 63.3926 100.498 63.3926 100.053V99.8066C63.3926 99.291 63.4688 98.832 63.6211 98.4297C63.7734 98.0234 63.9805 97.6797 64.2422 97.3984C64.5039 97.1172 64.8008 96.9043 65.1328 96.7598C65.4648 96.6152 65.8086 96.543 66.1641 96.543C66.6172 96.543 67.0078 96.6211 67.3359 96.7773C67.668 96.9336 67.9395 97.1523 68.1504 97.4336C68.3613 97.7109 68.5176 98.0391 68.6191 98.418C68.7207 98.793 68.7715 99.2031 68.7715 99.6484V100.135H64.0371V99.25H67.6875V99.168C67.6719 98.8867 67.6133 98.6133 67.5117 98.3477C67.4141 98.082 67.2578 97.8633 67.043 97.6914C66.8281 97.5195 66.5352 97.4336 66.1641 97.4336C65.918 97.4336 65.6914 97.4863 65.4844 97.5918C65.2773 97.6934 65.0996 97.8457 64.9512 98.0488C64.8027 98.252 64.6875 98.5 64.6055 98.793C64.5234 99.0859 64.4824 99.4238 64.4824 99.8066V100.053C64.4824 100.354 64.5234 100.637 64.6055 100.902C64.6914 101.164 64.8145 101.395 64.9746 101.594C65.1387 101.793 65.3359 101.949 65.5664 102.062C65.8008 102.176 66.0664 102.232 66.3633 102.232C66.7461 102.232 67.0703 102.154 67.3359 101.998C67.6016 101.842 67.834 101.633 68.0332 101.371L68.6895 101.893C68.5527 102.1 68.3789 102.297 68.168 102.484C67.957 102.672 67.6973 102.824 67.3887 102.941C67.084 103.059 66.7227 103.117 66.3047 103.117ZM71.2148 94V103H70.125V94H71.2148ZM74.1328 94V103H73.043V94H74.1328ZM78.5039 103.117C78.0625 103.117 77.6621 103.043 77.3027 102.895C76.9473 102.742 76.6406 102.529 76.3828 102.256C76.1289 101.982 75.9336 101.658 75.7969 101.283C75.6602 100.908 75.5918 100.498 75.5918 100.053V99.8066C75.5918 99.291 75.668 98.832 75.8203 98.4297C75.9727 98.0234 76.1797 97.6797 76.4414 97.3984C76.7031 97.1172 77 96.9043 77.332 96.7598C77.6641 96.6152 78.0078 96.543 78.3633 96.543C78.8164 96.543 79.207 96.6211 79.5352 96.7773C79.8672 96.9336 80.1387 97.1523 80.3496 97.4336C80.5605 97.7109 80.7168 98.0391 80.8184 98.418C80.9199 98.793 80.9707 99.2031 80.9707 99.6484V100.135H76.2363V99.25H79.8867V99.168C79.8711 98.8867 79.8125 98.6133 79.7109 98.3477C79.6133 98.082 79.457 97.8633 79.2422 97.6914C79.0273 97.5195 78.7344 97.4336 78.3633 97.4336C78.1172 97.4336 77.8906 97.4863 77.6836 97.5918C77.4766 97.6934 77.2988 97.8457 77.1504 98.0488C77.002 98.252 76.8867 98.5 76.8047 98.793C76.7227 99.0859 76.6816 99.4238 76.6816 99.8066V100.053C76.6816 100.354 76.7227 100.637 76.8047 100.902C76.8906 101.164 77.0137 101.395 77.1738 101.594C77.3379 101.793 77.5352 101.949 77.7656 102.062C78 102.176 78.2656 102.232 78.5625 102.232C78.9453 102.232 79.2695 102.154 79.5352 101.998C79.8008 101.842 80.0332 101.633 80.2324 101.371L80.8887 101.893C80.752 102.1 80.5781 102.297 80.3672 102.484C80.1562 102.672 79.8965 102.824 79.5879 102.941C79.2832 103.059 78.9219 103.117 78.5039 103.117ZM83.3203 98.0137V103H82.2363V96.6602H83.2617L83.3203 98.0137ZM83.0625 99.5898L82.6113 99.5723C82.6152 99.1387 82.6797 98.7383 82.8047 98.3711C82.9297 98 83.1055 97.6777 83.332 97.4043C83.5586 97.1309 83.8281 96.9199 84.1406 96.7715C84.457 96.6191 84.8066 96.543 85.1895 96.543C85.502 96.543 85.7832 96.5859 86.0332 96.6719C86.2832 96.7539 86.4961 96.8867 86.6719 97.0703C86.8516 97.2539 86.9883 97.4922 87.082 97.7852C87.1758 98.0742 87.2227 98.4277 87.2227 98.8457V103H86.1328V98.834C86.1328 98.502 86.084 98.2363 85.9863 98.0371C85.8887 97.834 85.7461 97.6875 85.5586 97.5977C85.3711 97.5039 85.1406 97.457 84.8672 97.457C84.5977 97.457 84.3516 97.5137 84.1289 97.627C83.9102 97.7402 83.7207 97.8965 83.5605 98.0957C83.4043 98.2949 83.2812 98.5234 83.1914 98.7812C83.1055 99.0352 83.0625 99.3047 83.0625 99.5898ZM91.5234 96.6602V97.4922H88.0957V96.6602H91.5234ZM89.2559 95.1191H90.3398V101.43C90.3398 101.645 90.373 101.807 90.4395 101.916C90.5059 102.025 90.5918 102.098 90.6973 102.133C90.8027 102.168 90.916 102.186 91.0371 102.186C91.127 102.186 91.2207 102.178 91.3184 102.162C91.4199 102.143 91.4961 102.127 91.5469 102.115L91.5527 103C91.4668 103.027 91.3535 103.053 91.2129 103.076C91.0762 103.104 90.9102 103.117 90.7148 103.117C90.4492 103.117 90.2051 103.064 89.9824 102.959C89.7598 102.854 89.582 102.678 89.4492 102.432C89.3203 102.182 89.2559 101.846 89.2559 101.424V95.1191ZM96.8555 97.8789V105.438H95.7656V96.6602H96.7617L96.8555 97.8789ZM101.127 99.7773V99.9004C101.127 100.361 101.072 100.789 100.963 101.184C100.854 101.574 100.693 101.914 100.482 102.203C100.275 102.492 100.02 102.717 99.7148 102.877C99.4102 103.037 99.0605 103.117 98.666 103.117C98.2637 103.117 97.9082 103.051 97.5996 102.918C97.291 102.785 97.0293 102.592 96.8145 102.338C96.5996 102.084 96.4277 101.779 96.2988 101.424C96.1738 101.068 96.0879 100.668 96.041 100.223V99.5664C96.0879 99.0977 96.1758 98.6777 96.3047 98.3066C96.4336 97.9355 96.6035 97.6191 96.8145 97.3574C97.0293 97.0918 97.2891 96.8906 97.5938 96.7539C97.8984 96.6133 98.25 96.543 98.6484 96.543C99.0469 96.543 99.4004 96.6211 99.709 96.7773C100.018 96.9297 100.277 97.1484 100.488 97.4336C100.699 97.7188 100.857 98.0605 100.963 98.459C101.072 98.8535 101.127 99.293 101.127 99.7773ZM100.037 99.9004V99.7773C100.037 99.4609 100.004 99.1641 99.9375 98.8867C99.8711 98.6055 99.7676 98.3594 99.627 98.1484C99.4902 97.9336 99.3145 97.7656 99.0996 97.6445C98.8848 97.5195 98.6289 97.457 98.332 97.457C98.0586 97.457 97.8203 97.5039 97.6172 97.5977C97.418 97.6914 97.248 97.8184 97.1074 97.9785C96.9668 98.1348 96.8516 98.3145 96.7617 98.5176C96.6758 98.7168 96.6113 98.9238 96.5684 99.1387V100.656C96.6465 100.93 96.7559 101.188 96.8965 101.43C97.0371 101.668 97.2246 101.861 97.459 102.01C97.6934 102.154 97.9883 102.227 98.3438 102.227C98.6367 102.227 98.8887 102.166 99.0996 102.045C99.3145 101.92 99.4902 101.75 99.627 101.535C99.7676 101.32 99.8711 101.074 99.9375 100.797C100.004 100.516 100.037 100.217 100.037 99.9004ZM103.688 96.6602V103H102.598V96.6602H103.688ZM102.516 94.9785C102.516 94.8027 102.568 94.6543 102.674 94.5332C102.783 94.4121 102.943 94.3516 103.154 94.3516C103.361 94.3516 103.52 94.4121 103.629 94.5332C103.742 94.6543 103.799 94.8027 103.799 94.9785C103.799 95.1465 103.742 95.291 103.629 95.4121C103.52 95.5293 103.361 95.5879 103.154 95.5879C102.943 95.5879 102.783 95.5293 102.674 95.4121C102.568 95.291 102.516 95.1465 102.516 94.9785ZM106.512 98.0137V103H105.428V96.6602H106.453L106.512 98.0137ZM106.254 99.5898L105.803 99.5723C105.807 99.1387 105.871 98.7383 105.996 98.3711C106.121 98 106.297 97.6777 106.523 97.4043C106.75 97.1309 107.02 96.9199 107.332 96.7715C107.648 96.6191 107.998 96.543 108.381 96.543C108.693 96.543 108.975 96.5859 109.225 96.6719C109.475 96.7539 109.688 96.8867 109.863 97.0703C110.043 97.2539 110.18 97.4922 110.273 97.7852C110.367 98.0742 110.414 98.4277 110.414 98.8457V103H109.324V98.834C109.324 98.502 109.275 98.2363 109.178 98.0371C109.08 97.834 108.938 97.6875 108.75 97.5977C108.562 97.5039 108.332 97.457 108.059 97.457C107.789 97.457 107.543 97.5137 107.32 97.627C107.102 97.7402 106.912 97.8965 106.752 98.0957C106.596 98.2949 106.473 98.5234 106.383 98.7812C106.297 99.0352 106.254 99.3047 106.254 99.5898ZM115.752 101.318C115.752 101.162 115.717 101.018 115.646 100.885C115.58 100.748 115.441 100.625 115.23 100.516C115.023 100.402 114.711 100.305 114.293 100.223C113.941 100.148 113.623 100.061 113.338 99.959C113.057 99.8574 112.816 99.7344 112.617 99.5898C112.422 99.4453 112.271 99.2754 112.166 99.0801C112.061 98.8848 112.008 98.6562 112.008 98.3945C112.008 98.1445 112.062 97.9082 112.172 97.6855C112.285 97.4629 112.443 97.2656 112.646 97.0938C112.854 96.9219 113.102 96.7871 113.391 96.6895C113.68 96.5918 114.002 96.543 114.357 96.543C114.865 96.543 115.299 96.6328 115.658 96.8125C116.018 96.9922 116.293 97.2324 116.484 97.5332C116.676 97.8301 116.771 98.1602 116.771 98.5234H115.688C115.688 98.3477 115.635 98.1777 115.529 98.0137C115.428 97.8457 115.277 97.707 115.078 97.5977C114.883 97.4883 114.643 97.4336 114.357 97.4336C114.057 97.4336 113.812 97.4805 113.625 97.5742C113.441 97.6641 113.307 97.7793 113.221 97.9199C113.139 98.0605 113.098 98.209 113.098 98.3652C113.098 98.4824 113.117 98.5879 113.156 98.6816C113.199 98.7715 113.273 98.8555 113.379 98.9336C113.484 99.0078 113.633 99.0781 113.824 99.1445C114.016 99.2109 114.26 99.2773 114.557 99.3438C115.076 99.4609 115.504 99.6016 115.84 99.7656C116.176 99.9297 116.426 100.131 116.59 100.369C116.754 100.607 116.836 100.896 116.836 101.236C116.836 101.514 116.777 101.768 116.66 101.998C116.547 102.229 116.381 102.428 116.162 102.596C115.947 102.76 115.689 102.889 115.389 102.982C115.092 103.072 114.758 103.117 114.387 103.117C113.828 103.117 113.355 103.018 112.969 102.818C112.582 102.619 112.289 102.361 112.09 102.045C111.891 101.729 111.791 101.395 111.791 101.043H112.881C112.896 101.34 112.982 101.576 113.139 101.752C113.295 101.924 113.486 102.047 113.713 102.121C113.939 102.191 114.164 102.227 114.387 102.227C114.684 102.227 114.932 102.188 115.131 102.109C115.334 102.031 115.488 101.924 115.594 101.787C115.699 101.65 115.752 101.494 115.752 101.318ZM120.949 99.9004V99.7656C120.949 99.3086 121.016 98.8848 121.148 98.4941C121.281 98.0996 121.473 97.7578 121.723 97.4688C121.973 97.1758 122.275 96.9492 122.631 96.7891C122.986 96.625 123.385 96.543 123.826 96.543C124.271 96.543 124.672 96.625 125.027 96.7891C125.387 96.9492 125.691 97.1758 125.941 97.4688C126.195 97.7578 126.389 98.0996 126.521 98.4941C126.654 98.8848 126.721 99.3086 126.721 99.7656V99.9004C126.721 100.357 126.654 100.781 126.521 101.172C126.389 101.562 126.195 101.904 125.941 102.197C125.691 102.486 125.389 102.713 125.033 102.877C124.682 103.037 124.283 103.117 123.838 103.117C123.393 103.117 122.992 103.037 122.637 102.877C122.281 102.713 121.977 102.486 121.723 102.197C121.473 101.904 121.281 101.562 121.148 101.172C121.016 100.781 120.949 100.357 120.949 99.9004ZM122.033 99.7656V99.9004C122.033 100.217 122.07 100.516 122.145 100.797C122.219 101.074 122.33 101.32 122.479 101.535C122.631 101.75 122.82 101.92 123.047 102.045C123.273 102.166 123.537 102.227 123.838 102.227C124.135 102.227 124.395 102.166 124.617 102.045C124.844 101.92 125.031 101.75 125.18 101.535C125.328 101.32 125.439 101.074 125.514 100.797C125.592 100.516 125.631 100.217 125.631 99.9004V99.7656C125.631 99.4531 125.592 99.1582 125.514 98.8809C125.439 98.5996 125.326 98.3516 125.174 98.1367C125.025 97.918 124.838 97.7461 124.611 97.6211C124.389 97.4961 124.127 97.4336 123.826 97.4336C123.529 97.4336 123.268 97.4961 123.041 97.6211C122.818 97.7461 122.631 97.918 122.479 98.1367C122.33 98.3516 122.219 98.5996 122.145 98.8809C122.07 99.1582 122.033 99.4531 122.033 99.7656ZM129.164 97.6562V103H128.08V96.6602H129.135L129.164 97.6562ZM131.145 96.625L131.139 97.6328C131.049 97.6133 130.963 97.6016 130.881 97.5977C130.803 97.5898 130.713 97.5859 130.611 97.5859C130.361 97.5859 130.141 97.625 129.949 97.7031C129.758 97.7812 129.596 97.8906 129.463 98.0312C129.33 98.1719 129.225 98.3398 129.146 98.5352C129.072 98.7266 129.023 98.9375 129 99.168L128.695 99.3438C128.695 98.9609 128.732 98.6016 128.807 98.2656C128.885 97.9297 129.004 97.6328 129.164 97.375C129.324 97.1133 129.527 96.9102 129.773 96.7656C130.023 96.6172 130.32 96.543 130.664 96.543C130.742 96.543 130.832 96.5527 130.934 96.5723C131.035 96.5879 131.105 96.6055 131.145 96.625ZM136.207 94V103H135.123V94H136.207ZM135.949 99.5898L135.498 99.5723C135.502 99.1387 135.566 98.7383 135.691 98.3711C135.816 98 135.992 97.6777 136.219 97.4043C136.445 97.1309 136.715 96.9199 137.027 96.7715C137.344 96.6191 137.693 96.543 138.076 96.543C138.389 96.543 138.67 96.5859 138.92 96.6719C139.17 96.7539 139.383 96.8867 139.559 97.0703C139.738 97.2539 139.875 97.4922 139.969 97.7852C140.062 98.0742 140.109 98.4277 140.109 98.8457V103H139.02V98.834C139.02 98.502 138.971 98.2363 138.873 98.0371C138.775 97.834 138.633 97.6875 138.445 97.5977C138.258 97.5039 138.027 97.457 137.754 97.457C137.484 97.457 137.238 97.5137 137.016 97.627C136.797 97.7402 136.607 97.8965 136.447 98.0957C136.291 98.2949 136.168 98.5234 136.078 98.7812C135.992 99.0352 135.949 99.3047 135.949 99.5898ZM145.471 101.916V98.6523C145.471 98.4023 145.42 98.1855 145.318 98.002C145.221 97.8145 145.072 97.6699 144.873 97.5684C144.674 97.4668 144.428 97.416 144.135 97.416C143.861 97.416 143.621 97.4629 143.414 97.5566C143.211 97.6504 143.051 97.7734 142.934 97.9258C142.82 98.0781 142.764 98.2422 142.764 98.418H141.68C141.68 98.1914 141.738 97.9668 141.855 97.7441C141.973 97.5215 142.141 97.3203 142.359 97.1406C142.582 96.957 142.848 96.8125 143.156 96.707C143.469 96.5977 143.816 96.543 144.199 96.543C144.66 96.543 145.066 96.6211 145.418 96.7773C145.773 96.9336 146.051 97.1699 146.25 97.4863C146.453 97.7988 146.555 98.1914 146.555 98.6641V101.617C146.555 101.828 146.572 102.053 146.607 102.291C146.646 102.529 146.703 102.734 146.777 102.906V103H145.646C145.592 102.875 145.549 102.709 145.518 102.502C145.486 102.291 145.471 102.096 145.471 101.916ZM145.658 99.1562L145.67 99.918H144.574C144.266 99.918 143.99 99.9434 143.748 99.9941C143.506 100.041 143.303 100.113 143.139 100.211C142.975 100.309 142.85 100.432 142.764 100.58C142.678 100.725 142.635 100.895 142.635 101.09C142.635 101.289 142.68 101.471 142.77 101.635C142.859 101.799 142.994 101.93 143.174 102.027C143.357 102.121 143.582 102.168 143.848 102.168C144.18 102.168 144.473 102.098 144.727 101.957C144.98 101.816 145.182 101.645 145.33 101.441C145.482 101.238 145.564 101.041 145.576 100.85L146.039 101.371C146.012 101.535 145.938 101.717 145.816 101.916C145.695 102.115 145.533 102.307 145.33 102.49C145.131 102.67 144.893 102.82 144.615 102.941C144.342 103.059 144.033 103.117 143.689 103.117C143.26 103.117 142.883 103.033 142.559 102.865C142.238 102.697 141.988 102.473 141.809 102.191C141.633 101.906 141.545 101.588 141.545 101.236C141.545 100.896 141.611 100.598 141.744 100.34C141.877 100.078 142.068 99.8613 142.318 99.6895C142.568 99.5137 142.869 99.3809 143.221 99.291C143.572 99.2012 143.965 99.1562 144.398 99.1562H145.658ZM150.094 102.021L151.828 96.6602H152.936L150.656 103H149.93L150.094 102.021ZM148.646 96.6602L150.434 102.051L150.557 103H149.83L147.533 96.6602H148.646ZM156.527 103.117C156.086 103.117 155.686 103.043 155.326 102.895C154.971 102.742 154.664 102.529 154.406 102.256C154.152 101.982 153.957 101.658 153.82 101.283C153.684 100.908 153.615 100.498 153.615 100.053V99.8066C153.615 99.291 153.691 98.832 153.844 98.4297C153.996 98.0234 154.203 97.6797 154.465 97.3984C154.727 97.1172 155.023 96.9043 155.355 96.7598C155.688 96.6152 156.031 96.543 156.387 96.543C156.84 96.543 157.23 96.6211 157.559 96.7773C157.891 96.9336 158.162 97.1523 158.373 97.4336C158.584 97.7109 158.74 98.0391 158.842 98.418C158.943 98.793 158.994 99.2031 158.994 99.6484V100.135H154.26V99.25H157.91V99.168C157.895 98.8867 157.836 98.6133 157.734 98.3477C157.637 98.082 157.48 97.8633 157.266 97.6914C157.051 97.5195 156.758 97.4336 156.387 97.4336C156.141 97.4336 155.914 97.4863 155.707 97.5918C155.5 97.6934 155.322 97.8457 155.174 98.0488C155.025 98.252 154.91 98.5 154.828 98.793C154.746 99.0859 154.705 99.4238 154.705 99.8066V100.053C154.705 100.354 154.746 100.637 154.828 100.902C154.914 101.164 155.037 101.395 155.197 101.594C155.361 101.793 155.559 101.949 155.789 102.062C156.023 102.176 156.289 102.232 156.586 102.232C156.969 102.232 157.293 102.154 157.559 101.998C157.824 101.842 158.057 101.633 158.256 101.371L158.912 101.893C158.775 102.1 158.602 102.297 158.391 102.484C158.18 102.672 157.92 102.824 157.611 102.941C157.307 103.059 156.945 103.117 156.527 103.117ZM165.018 102.344L166.781 96.6602H167.941L165.398 103.979C165.34 104.135 165.262 104.303 165.164 104.482C165.07 104.666 164.949 104.84 164.801 105.004C164.652 105.168 164.473 105.301 164.262 105.402C164.055 105.508 163.807 105.561 163.518 105.561C163.432 105.561 163.322 105.549 163.189 105.525C163.057 105.502 162.963 105.482 162.908 105.467L162.902 104.588C162.934 104.592 162.982 104.596 163.049 104.6C163.119 104.607 163.168 104.611 163.195 104.611C163.441 104.611 163.65 104.578 163.822 104.512C163.994 104.449 164.139 104.342 164.256 104.189C164.377 104.041 164.48 103.836 164.566 103.574L165.018 102.344ZM163.723 96.6602L165.369 101.582L165.65 102.725L164.871 103.123L162.539 96.6602H163.723ZM168.539 99.9004V99.7656C168.539 99.3086 168.605 98.8848 168.738 98.4941C168.871 98.0996 169.062 97.7578 169.312 97.4688C169.562 97.1758 169.865 96.9492 170.221 96.7891C170.576 96.625 170.975 96.543 171.416 96.543C171.861 96.543 172.262 96.625 172.617 96.7891C172.977 96.9492 173.281 97.1758 173.531 97.4688C173.785 97.7578 173.979 98.0996 174.111 98.4941C174.244 98.8848 174.311 99.3086 174.311 99.7656V99.9004C174.311 100.357 174.244 100.781 174.111 101.172C173.979 101.562 173.785 101.904 173.531 102.197C173.281 102.486 172.979 102.713 172.623 102.877C172.271 103.037 171.873 103.117 171.428 103.117C170.982 103.117 170.582 103.037 170.227 102.877C169.871 102.713 169.566 102.486 169.312 102.197C169.062 101.904 168.871 101.562 168.738 101.172C168.605 100.781 168.539 100.357 168.539 99.9004ZM169.623 99.7656V99.9004C169.623 100.217 169.66 100.516 169.734 100.797C169.809 101.074 169.92 101.32 170.068 101.535C170.221 101.75 170.41 101.92 170.637 102.045C170.863 102.166 171.127 102.227 171.428 102.227C171.725 102.227 171.984 102.166 172.207 102.045C172.434 101.92 172.621 101.75 172.77 101.535C172.918 101.32 173.029 101.074 173.104 100.797C173.182 100.516 173.221 100.217 173.221 99.9004V99.7656C173.221 99.4531 173.182 99.1582 173.104 98.8809C173.029 98.5996 172.916 98.3516 172.764 98.1367C172.615 97.918 172.428 97.7461 172.201 97.6211C171.979 97.4961 171.717 97.4336 171.416 97.4336C171.119 97.4336 170.857 97.4961 170.631 97.6211C170.408 97.7461 170.221 97.918 170.068 98.1367C169.92 98.3516 169.809 98.5996 169.734 98.8809C169.66 99.1582 169.623 99.4531 169.623 99.7656ZM179.549 101.535V96.6602H180.639V103H179.602L179.549 101.535ZM179.754 100.199L180.205 100.188C180.205 100.609 180.16 101 180.07 101.359C179.984 101.715 179.844 102.023 179.648 102.285C179.453 102.547 179.197 102.752 178.881 102.9C178.564 103.045 178.18 103.117 177.727 103.117C177.418 103.117 177.135 103.072 176.877 102.982C176.623 102.893 176.404 102.754 176.221 102.566C176.037 102.379 175.895 102.135 175.793 101.834C175.695 101.533 175.646 101.172 175.646 100.75V96.6602H176.73V100.762C176.73 101.047 176.762 101.283 176.824 101.471C176.891 101.654 176.979 101.801 177.088 101.91C177.201 102.016 177.326 102.09 177.463 102.133C177.604 102.176 177.748 102.197 177.896 102.197C178.357 102.197 178.723 102.109 178.992 101.934C179.262 101.754 179.455 101.514 179.572 101.213C179.693 100.908 179.754 100.57 179.754 100.199ZM183.375 97.6562V103H182.291V96.6602H183.346L183.375 97.6562ZM185.355 96.625L185.35 97.6328C185.26 97.6133 185.174 97.6016 185.092 97.5977C185.014 97.5898 184.924 97.5859 184.822 97.5859C184.572 97.5859 184.352 97.625 184.16 97.7031C183.969 97.7812 183.807 97.8906 183.674 98.0312C183.541 98.1719 183.436 98.3398 183.357 98.5352C183.283 98.7266 183.234 98.9375 183.211 99.168L182.906 99.3438C182.906 98.9609 182.943 98.6016 183.018 98.2656C183.096 97.9297 183.215 97.6328 183.375 97.375C183.535 97.1133 183.738 96.9102 183.984 96.7656C184.234 96.6172 184.531 96.543 184.875 96.543C184.953 96.543 185.043 96.5527 185.145 96.5723C185.246 96.5879 185.316 96.6055 185.355 96.625ZM190.412 97.9199V103H189.322V96.6602H190.354L190.412 97.9199ZM190.189 99.5898L189.686 99.5723C189.689 99.1387 189.746 98.7383 189.855 98.3711C189.965 98 190.127 97.6777 190.342 97.4043C190.557 97.1309 190.824 96.9199 191.145 96.7715C191.465 96.6191 191.836 96.543 192.258 96.543C192.555 96.543 192.828 96.5859 193.078 96.6719C193.328 96.7539 193.545 96.8848 193.729 97.0645C193.912 97.2441 194.055 97.4746 194.156 97.7559C194.258 98.0371 194.309 98.377 194.309 98.7754V103H193.225V98.8281C193.225 98.4961 193.168 98.2305 193.055 98.0312C192.945 97.832 192.789 97.6875 192.586 97.5977C192.383 97.5039 192.145 97.457 191.871 97.457C191.551 97.457 191.283 97.5137 191.068 97.627C190.854 97.7402 190.682 97.8965 190.553 98.0957C190.424 98.2949 190.33 98.5234 190.271 98.7812C190.217 99.0352 190.189 99.3047 190.189 99.5898ZM194.297 98.9922L193.57 99.2148C193.574 98.8672 193.631 98.5332 193.74 98.2129C193.854 97.8926 194.016 97.6074 194.227 97.3574C194.441 97.1074 194.705 96.9102 195.018 96.7656C195.33 96.6172 195.688 96.543 196.09 96.543C196.43 96.543 196.73 96.5879 196.992 96.6777C197.258 96.7676 197.48 96.9062 197.66 97.0938C197.844 97.2773 197.982 97.5137 198.076 97.8027C198.17 98.0918 198.217 98.4355 198.217 98.834V103H197.127V98.8223C197.127 98.4668 197.07 98.1914 196.957 97.9961C196.848 97.7969 196.691 97.6582 196.488 97.5801C196.289 97.498 196.051 97.457 195.773 97.457C195.535 97.457 195.324 97.498 195.141 97.5801C194.957 97.6621 194.803 97.7754 194.678 97.9199C194.553 98.0605 194.457 98.2227 194.391 98.4062C194.328 98.5898 194.297 98.7852 194.297 98.9922ZM199.57 99.9004V99.7656C199.57 99.3086 199.637 98.8848 199.77 98.4941C199.902 98.0996 200.094 97.7578 200.344 97.4688C200.594 97.1758 200.896 96.9492 201.252 96.7891C201.607 96.625 202.006 96.543 202.447 96.543C202.893 96.543 203.293 96.625 203.648 96.7891C204.008 96.9492 204.312 97.1758 204.562 97.4688C204.816 97.7578 205.01 98.0996 205.143 98.4941C205.275 98.8848 205.342 99.3086 205.342 99.7656V99.9004C205.342 100.357 205.275 100.781 205.143 101.172C205.01 101.562 204.816 101.904 204.562 102.197C204.312 102.486 204.01 102.713 203.654 102.877C203.303 103.037 202.904 103.117 202.459 103.117C202.014 103.117 201.613 103.037 201.258 102.877C200.902 102.713 200.598 102.486 200.344 102.197C200.094 101.904 199.902 101.562 199.77 101.172C199.637 100.781 199.57 100.357 199.57 99.9004ZM200.654 99.7656V99.9004C200.654 100.217 200.691 100.516 200.766 100.797C200.84 101.074 200.951 101.32 201.1 101.535C201.252 101.75 201.441 101.92 201.668 102.045C201.895 102.166 202.158 102.227 202.459 102.227C202.756 102.227 203.016 102.166 203.238 102.045C203.465 101.92 203.652 101.75 203.801 101.535C203.949 101.32 204.061 101.074 204.135 100.797C204.213 100.516 204.252 100.217 204.252 99.9004V99.7656C204.252 99.4531 204.213 99.1582 204.135 98.8809C204.061 98.5996 203.947 98.3516 203.795 98.1367C203.646 97.918 203.459 97.7461 203.232 97.6211C203.01 97.4961 202.748 97.4336 202.447 97.4336C202.15 97.4336 201.889 97.4961 201.662 97.6211C201.439 97.7461 201.252 97.918 201.1 98.1367C200.951 98.3516 200.84 98.5996 200.766 98.8809C200.691 99.1582 200.654 99.4531 200.654 99.7656ZM207.785 98.0137V103H206.701V96.6602H207.727L207.785 98.0137ZM207.527 99.5898L207.076 99.5723C207.08 99.1387 207.145 98.7383 207.27 98.3711C207.395 98 207.57 97.6777 207.797 97.4043C208.023 97.1309 208.293 96.9199 208.605 96.7715C208.922 96.6191 209.271 96.543 209.654 96.543C209.967 96.543 210.248 96.5859 210.498 96.6719C210.748 96.7539 210.961 96.8867 211.137 97.0703C211.316 97.2539 211.453 97.4922 211.547 97.7852C211.641 98.0742 211.688 98.4277 211.688 98.8457V103H210.598V98.834C210.598 98.502 210.549 98.2363 210.451 98.0371C210.354 97.834 210.211 97.6875 210.023 97.5977C209.836 97.5039 209.605 97.457 209.332 97.457C209.062 97.457 208.816 97.5137 208.594 97.627C208.375 97.7402 208.186 97.8965 208.025 98.0957C207.869 98.2949 207.746 98.5234 207.656 98.7812C207.57 99.0352 207.527 99.3047 207.527 99.5898ZM215.965 103.117C215.523 103.117 215.123 103.043 214.764 102.895C214.408 102.742 214.102 102.529 213.844 102.256C213.59 101.982 213.395 101.658 213.258 101.283C213.121 100.908 213.053 100.498 213.053 100.053V99.8066C213.053 99.291 213.129 98.832 213.281 98.4297C213.434 98.0234 213.641 97.6797 213.902 97.3984C214.164 97.1172 214.461 96.9043 214.793 96.7598C215.125 96.6152 215.469 96.543 215.824 96.543C216.277 96.543 216.668 96.6211 216.996 96.7773C217.328 96.9336 217.6 97.1523 217.811 97.4336C218.021 97.7109 218.178 98.0391 218.279 98.418C218.381 98.793 218.432 99.2031 218.432 99.6484V100.135H213.697V99.25H217.348V99.168C217.332 98.8867 217.273 98.6133 217.172 98.3477C217.074 98.082 216.918 97.8633 216.703 97.6914C216.488 97.5195 216.195 97.4336 215.824 97.4336C215.578 97.4336 215.352 97.4863 215.145 97.5918C214.938 97.6934 214.76 97.8457 214.611 98.0488C214.463 98.252 214.348 98.5 214.266 98.793C214.184 99.0859 214.143 99.4238 214.143 99.8066V100.053C214.143 100.354 214.184 100.637 214.266 100.902C214.352 101.164 214.475 101.395 214.635 101.594C214.799 101.793 214.996 101.949 215.227 102.062C215.461 102.176 215.727 102.232 216.023 102.232C216.406 102.232 216.73 102.154 216.996 101.998C217.262 101.842 217.494 101.633 217.693 101.371L218.35 101.893C218.213 102.1 218.039 102.297 217.828 102.484C217.617 102.672 217.357 102.824 217.049 102.941C216.744 103.059 216.383 103.117 215.965 103.117ZM221.396 102.344L223.16 96.6602H224.32L221.777 103.979C221.719 104.135 221.641 104.303 221.543 104.482C221.449 104.666 221.328 104.84 221.18 105.004C221.031 105.168 220.852 105.301 220.641 105.402C220.434 105.508 220.186 105.561 219.896 105.561C219.811 105.561 219.701 105.549 219.568 105.525C219.436 105.502 219.342 105.482 219.287 105.467L219.281 104.588C219.312 104.592 219.361 104.596 219.428 104.6C219.498 104.607 219.547 104.611 219.574 104.611C219.82 104.611 220.029 104.578 220.201 104.512C220.373 104.449 220.518 104.342 220.635 104.189C220.756 104.041 220.859 103.836 220.945 103.574L221.396 102.344ZM220.102 96.6602L221.748 101.582L222.029 102.725L221.25 103.123L218.918 96.6602H220.102ZM228.27 94H229.359V101.77L229.266 103H228.27V94ZM233.643 99.7773V99.9004C233.643 100.361 233.588 100.789 233.479 101.184C233.369 101.574 233.209 101.914 232.998 102.203C232.787 102.492 232.529 102.717 232.225 102.877C231.92 103.037 231.57 103.117 231.176 103.117C230.773 103.117 230.42 103.049 230.115 102.912C229.814 102.771 229.561 102.57 229.354 102.309C229.146 102.047 228.98 101.73 228.855 101.359C228.734 100.988 228.65 100.57 228.604 100.105V99.5664C228.65 99.0977 228.734 98.6777 228.855 98.3066C228.98 97.9355 229.146 97.6191 229.354 97.3574C229.561 97.0918 229.814 96.8906 230.115 96.7539C230.416 96.6133 230.766 96.543 231.164 96.543C231.562 96.543 231.916 96.6211 232.225 96.7773C232.533 96.9297 232.791 97.1484 232.998 97.4336C233.209 97.7188 233.369 98.0605 233.479 98.459C233.588 98.8535 233.643 99.293 233.643 99.7773ZM232.553 99.9004V99.7773C232.553 99.4609 232.523 99.1641 232.465 98.8867C232.406 98.6055 232.312 98.3594 232.184 98.1484C232.055 97.9336 231.885 97.7656 231.674 97.6445C231.463 97.5195 231.203 97.457 230.895 97.457C230.621 97.457 230.383 97.5039 230.18 97.5977C229.98 97.6914 229.811 97.8184 229.67 97.9785C229.529 98.1348 229.414 98.3145 229.324 98.5176C229.238 98.7168 229.174 98.9238 229.131 99.1387V100.551C229.193 100.824 229.295 101.088 229.436 101.342C229.58 101.592 229.771 101.797 230.01 101.957C230.252 102.117 230.551 102.197 230.906 102.197C231.199 102.197 231.449 102.139 231.656 102.021C231.867 101.9 232.037 101.734 232.166 101.523C232.299 101.312 232.396 101.068 232.459 100.791C232.521 100.514 232.553 100.217 232.553 99.9004ZM238.752 101.916V98.6523C238.752 98.4023 238.701 98.1855 238.6 98.002C238.502 97.8145 238.354 97.6699 238.154 97.5684C237.955 97.4668 237.709 97.416 237.416 97.416C237.143 97.416 236.902 97.4629 236.695 97.5566C236.492 97.6504 236.332 97.7734 236.215 97.9258C236.102 98.0781 236.045 98.2422 236.045 98.418H234.961C234.961 98.1914 235.02 97.9668 235.137 97.7441C235.254 97.5215 235.422 97.3203 235.641 97.1406C235.863 96.957 236.129 96.8125 236.438 96.707C236.75 96.5977 237.098 96.543 237.48 96.543C237.941 96.543 238.348 96.6211 238.699 96.7773C239.055 96.9336 239.332 97.1699 239.531 97.4863C239.734 97.7988 239.836 98.1914 239.836 98.6641V101.617C239.836 101.828 239.854 102.053 239.889 102.291C239.928 102.529 239.984 102.734 240.059 102.906V103H238.928C238.873 102.875 238.83 102.709 238.799 102.502C238.768 102.291 238.752 102.096 238.752 101.916ZM238.939 99.1562L238.951 99.918H237.855C237.547 99.918 237.271 99.9434 237.029 99.9941C236.787 100.041 236.584 100.113 236.42 100.211C236.256 100.309 236.131 100.432 236.045 100.58C235.959 100.725 235.916 100.895 235.916 101.09C235.916 101.289 235.961 101.471 236.051 101.635C236.141 101.799 236.275 101.93 236.455 102.027C236.639 102.121 236.863 102.168 237.129 102.168C237.461 102.168 237.754 102.098 238.008 101.957C238.262 101.816 238.463 101.645 238.611 101.441C238.764 101.238 238.846 101.041 238.857 100.85L239.32 101.371C239.293 101.535 239.219 101.717 239.098 101.916C238.977 102.115 238.814 102.307 238.611 102.49C238.412 102.67 238.174 102.82 237.896 102.941C237.623 103.059 237.314 103.117 236.971 103.117C236.541 103.117 236.164 103.033 235.84 102.865C235.52 102.697 235.27 102.473 235.09 102.191C234.914 101.906 234.826 101.588 234.826 101.236C234.826 100.896 234.893 100.598 235.025 100.34C235.158 100.078 235.35 99.8613 235.6 99.6895C235.85 99.5137 236.15 99.3809 236.502 99.291C236.854 99.2012 237.246 99.1562 237.68 99.1562H238.939ZM244.078 102.227C244.336 102.227 244.574 102.174 244.793 102.068C245.012 101.963 245.191 101.818 245.332 101.635C245.473 101.447 245.553 101.234 245.572 100.996H246.604C246.584 101.371 246.457 101.721 246.223 102.045C245.992 102.365 245.689 102.625 245.314 102.824C244.939 103.02 244.527 103.117 244.078 103.117C243.602 103.117 243.186 103.033 242.83 102.865C242.479 102.697 242.186 102.467 241.951 102.174C241.721 101.881 241.547 101.545 241.43 101.166C241.316 100.783 241.26 100.379 241.26 99.9531V99.707C241.26 99.2812 241.316 98.8789 241.43 98.5C241.547 98.1172 241.721 97.7793 241.951 97.4863C242.186 97.1934 242.479 96.9629 242.83 96.7949C243.186 96.627 243.602 96.543 244.078 96.543C244.574 96.543 245.008 96.6445 245.379 96.8477C245.75 97.0469 246.041 97.3203 246.252 97.668C246.467 98.0117 246.584 98.4023 246.604 98.8398H245.572C245.553 98.5781 245.479 98.3418 245.35 98.1309C245.225 97.9199 245.053 97.752 244.834 97.627C244.619 97.498 244.367 97.4336 244.078 97.4336C243.746 97.4336 243.467 97.5 243.24 97.6328C243.018 97.7617 242.84 97.9375 242.707 98.1602C242.578 98.3789 242.484 98.623 242.426 98.8926C242.371 99.1582 242.344 99.4297 242.344 99.707V99.9531C242.344 100.23 242.371 100.504 242.426 100.773C242.48 101.043 242.572 101.287 242.701 101.506C242.834 101.725 243.012 101.9 243.234 102.033C243.461 102.162 243.742 102.227 244.078 102.227ZM248.912 94V103H247.822V94H248.912ZM252.785 96.6602L250.02 99.6191L248.473 101.225L248.385 100.07L249.492 98.7461L251.461 96.6602H252.785ZM251.795 103L249.533 99.9766L250.096 99.0098L253.072 103H251.795Z" fill="#1F1E1E"/>
<path d="M122.5 32C122.5 23.4396 129.44 16.5 138 16.5C146.56 16.5 153.5 23.4396 153.5 32C153.5 40.5604 146.56 47.5 138 47.5C129.44 47.5 122.5 40.5604 122.5 32Z" stroke="black" stroke-opacity="0.12"/>
<path d="M137.055 30.6016H138.086C138.591 30.6016 139.008 30.5182 139.336 30.3516C139.669 30.1797 139.917 29.9479 140.078 29.6562C140.245 29.3594 140.328 29.026 140.328 28.6562C140.328 28.2188 140.255 27.8516 140.109 27.5547C139.964 27.2578 139.745 27.0339 139.453 26.8828C139.161 26.7318 138.792 26.6562 138.344 26.6562C137.938 26.6562 137.578 26.737 137.266 26.8984C136.958 27.0547 136.716 27.2786 136.539 27.5703C136.367 27.862 136.281 28.2057 136.281 28.6016H134.836C134.836 28.0234 134.982 27.4974 135.273 27.0234C135.565 26.5495 135.974 26.1719 136.5 25.8906C137.031 25.6094 137.646 25.4688 138.344 25.4688C139.031 25.4688 139.633 25.5911 140.148 25.8359C140.664 26.0755 141.065 26.4349 141.352 26.9141C141.638 27.388 141.781 27.9792 141.781 28.6875C141.781 28.974 141.714 29.2812 141.578 29.6094C141.448 29.9323 141.242 30.2344 140.961 30.5156C140.685 30.7969 140.326 31.0286 139.883 31.2109C139.44 31.388 138.909 31.4766 138.289 31.4766H137.055V30.6016ZM137.055 31.7891V30.9219H138.289C139.013 30.9219 139.612 31.0078 140.086 31.1797C140.56 31.3516 140.932 31.5807 141.203 31.8672C141.479 32.1536 141.672 32.4688 141.781 32.8125C141.896 33.151 141.953 33.4896 141.953 33.8281C141.953 34.3594 141.862 34.8307 141.68 35.2422C141.503 35.6536 141.25 36.0026 140.922 36.2891C140.599 36.5755 140.219 36.7917 139.781 36.9375C139.344 37.0833 138.867 37.1562 138.352 37.1562C137.857 37.1562 137.391 37.0859 136.953 36.9453C136.521 36.8047 136.138 36.6016 135.805 36.3359C135.471 36.0651 135.211 35.7344 135.023 35.3438C134.836 34.9479 134.742 34.4974 134.742 33.9922H136.188C136.188 34.388 136.273 34.7344 136.445 35.0312C136.622 35.3281 136.872 35.5599 137.195 35.7266C137.523 35.888 137.909 35.9688 138.352 35.9688C138.794 35.9688 139.174 35.8932 139.492 35.7422C139.815 35.5859 140.062 35.3516 140.234 35.0391C140.411 34.7266 140.5 34.3333 140.5 33.8594C140.5 33.3854 140.401 32.9974 140.203 32.6953C140.005 32.388 139.724 32.1615 139.359 32.0156C139 31.8646 138.576 31.7891 138.086 31.7891H137.055Z" fill="#1F1E1E"/>
<path d="M66.6128 67.3359V78H65.1919L59.8232 69.7749V78H58.4097V67.3359H59.8232L65.2139 75.583V67.3359H66.6128ZM73.1973 68.2808L69.667 78H68.2241L72.2891 67.3359H73.2192L73.1973 68.2808ZM76.1562 78L72.6187 68.2808L72.5967 67.3359H73.5269L77.6064 78H76.1562ZM75.9731 74.0522V75.2095H69.9819V74.0522H75.9731ZM82.0229 67.3359V78H80.6313V67.3359H82.0229ZM85.4507 67.3359V68.4932H77.2109V67.3359H85.4507ZM93.1338 67.3359H94.54V74.5503C94.54 75.3511 94.3618 76.0176 94.0054 76.5498C93.6489 77.082 93.1753 77.4824 92.5845 77.751C91.9985 78.0146 91.3613 78.1465 90.6729 78.1465C89.9502 78.1465 89.2959 78.0146 88.71 77.751C88.1289 77.4824 87.6675 77.082 87.3257 76.5498C86.9888 76.0176 86.8203 75.3511 86.8203 74.5503V67.3359H88.2192V74.5503C88.2192 75.1069 88.3218 75.5659 88.5269 75.9272C88.7319 76.2886 89.0176 76.5571 89.3838 76.7329C89.7549 76.9087 90.1846 76.9966 90.6729 76.9966C91.166 76.9966 91.5957 76.9087 91.9619 76.7329C92.333 76.5571 92.6211 76.2886 92.8262 75.9272C93.0312 75.5659 93.1338 75.1069 93.1338 74.5503V67.3359ZM96.7593 67.3359H100.29C101.09 67.3359 101.767 67.458 102.318 67.7021C102.875 67.9463 103.297 68.3076 103.585 68.7861C103.878 69.2598 104.025 69.8433 104.025 70.5366C104.025 71.0249 103.925 71.4717 103.725 71.877C103.529 72.2773 103.246 72.6191 102.875 72.9023C102.509 73.1807 102.069 73.3882 101.557 73.5249L101.161 73.6787H97.8433L97.8286 72.5288H100.333C100.841 72.5288 101.264 72.4409 101.601 72.2651C101.938 72.0845 102.191 71.8428 102.362 71.54C102.533 71.2373 102.619 70.9028 102.619 70.5366C102.619 70.1265 102.538 69.7676 102.377 69.46C102.216 69.1523 101.962 68.9155 101.615 68.7495C101.273 68.5786 100.832 68.4932 100.29 68.4932H98.1729V78H96.7593V67.3359ZM102.992 78L100.399 73.166L101.872 73.1587L104.501 77.9121V78H102.992ZM109.95 68.2808L106.42 78H104.977L109.042 67.3359H109.972L109.95 68.2808ZM112.909 78L109.372 68.2808L109.35 67.3359H110.28L114.359 78H112.909ZM112.726 74.0522V75.2095H106.735V74.0522H112.726ZM122.255 76.8501V78H116.923V76.8501H122.255ZM117.201 67.3359V78H115.788V67.3359H117.201ZM129.11 67.3359V78H127.697V67.3359H129.11ZM139.884 67.3359V78H138.463L133.095 69.7749V78H131.681V67.3359H133.095L138.485 75.583V67.3359H139.884ZM150.27 72.6899V76.5938C150.138 76.7891 149.928 77.0088 149.64 77.2529C149.352 77.4922 148.954 77.7021 148.446 77.8828C147.943 78.0586 147.294 78.1465 146.498 78.1465C145.849 78.1465 145.25 78.0342 144.704 77.8096C144.162 77.5801 143.69 77.248 143.29 76.8135C142.895 76.374 142.587 75.8418 142.367 75.2168C142.152 74.5869 142.045 73.874 142.045 73.0781V72.2505C142.045 71.4546 142.138 70.7441 142.323 70.1191C142.514 69.4941 142.792 68.9644 143.158 68.5298C143.524 68.0903 143.974 67.7583 144.506 67.5337C145.038 67.3042 145.648 67.1895 146.337 67.1895C147.152 67.1895 147.833 67.3311 148.38 67.6143C148.932 67.8926 149.362 68.2783 149.669 68.7715C149.982 69.2646 150.182 69.8262 150.27 70.4561H148.856C148.793 70.0703 148.666 69.7188 148.476 69.4014C148.29 69.084 148.024 68.8301 147.677 68.6396C147.331 68.4443 146.884 68.3467 146.337 68.3467C145.844 68.3467 145.417 68.437 145.055 68.6177C144.694 68.7983 144.396 69.0571 144.162 69.394C143.927 69.731 143.751 70.1387 143.634 70.6172C143.522 71.0957 143.466 71.6353 143.466 72.2358V73.0781C143.466 73.6934 143.537 74.2427 143.678 74.7261C143.825 75.2095 144.032 75.6221 144.301 75.9639C144.569 76.3008 144.889 76.5571 145.26 76.7329C145.636 76.9087 146.051 76.9966 146.505 76.9966C147.008 76.9966 147.416 76.9551 147.729 76.8721C148.041 76.7842 148.285 76.6816 148.461 76.5645C148.637 76.4424 148.771 76.3276 148.864 76.2202V73.8325H146.396V72.6899H150.27ZM152.614 67.3359H156.144C156.945 67.3359 157.621 67.458 158.173 67.7021C158.729 67.9463 159.152 68.3076 159.44 68.7861C159.733 69.2598 159.879 69.8433 159.879 70.5366C159.879 71.0249 159.779 71.4717 159.579 71.877C159.384 72.2773 159.101 72.6191 158.729 72.9023C158.363 73.1807 157.924 73.3882 157.411 73.5249L157.016 73.6787H153.698L153.683 72.5288H156.188C156.696 72.5288 157.118 72.4409 157.455 72.2651C157.792 72.0845 158.046 71.8428 158.217 71.54C158.388 71.2373 158.473 70.9028 158.473 70.5366C158.473 70.1265 158.393 69.7676 158.231 69.46C158.07 69.1523 157.816 68.9155 157.47 68.7495C157.128 68.5786 156.686 68.4932 156.144 68.4932H154.027V78H152.614V67.3359ZM158.847 78L156.254 73.166L157.726 73.1587L160.355 77.9121V78H158.847ZM168.632 76.8501V78H162.985V76.8501H168.632ZM163.271 67.3359V78H161.857V67.3359H163.271ZM167.885 71.9209V73.0708H162.985V71.9209H167.885ZM168.559 67.3359V68.4932H162.985V67.3359H168.559ZM173.268 78H171.042L171.056 76.8501H173.268C174.03 76.8501 174.665 76.6914 175.172 76.374C175.68 76.0518 176.061 75.6025 176.315 75.0264C176.574 74.4453 176.703 73.7666 176.703 72.9902V72.3384C176.703 71.728 176.63 71.186 176.483 70.7124C176.337 70.2339 176.122 69.8311 175.839 69.5039C175.556 69.1719 175.209 68.9204 174.799 68.7495C174.394 68.5786 173.927 68.4932 173.4 68.4932H170.998V67.3359H173.4C174.098 67.3359 174.735 67.4531 175.312 67.6875C175.888 67.917 176.383 68.2515 176.798 68.6909C177.218 69.1255 177.541 69.6528 177.765 70.2729C177.99 70.8882 178.102 71.5815 178.102 72.353V72.9902C178.102 73.7617 177.99 74.4575 177.765 75.0776C177.541 75.6929 177.216 76.2178 176.791 76.6523C176.371 77.0869 175.863 77.4214 175.268 77.6558C174.677 77.8853 174.01 78 173.268 78ZM171.796 67.3359V78H170.382V67.3359H171.796ZM181.742 67.3359V78H180.329V67.3359H181.742ZM191.088 76.8501V78H185.441V76.8501H191.088ZM185.727 67.3359V78H184.313V67.3359H185.727ZM190.341 71.9209V73.0708H185.441V71.9209H190.341ZM191.015 67.3359V68.4932H185.441V67.3359H191.015ZM201.042 67.3359V78H199.621L194.252 69.7749V78H192.838V67.3359H194.252L199.643 75.583V67.3359H201.042ZM207.267 67.3359V78H205.875V67.3359H207.267ZM210.695 67.3359V68.4932H202.455V67.3359H210.695ZM217.843 75.3047C217.843 75.0557 217.804 74.8359 217.726 74.6455C217.653 74.4502 217.521 74.2744 217.331 74.1182C217.145 73.9619 216.886 73.813 216.554 73.6714C216.227 73.5298 215.812 73.3857 215.309 73.2393C214.782 73.083 214.306 72.9097 213.881 72.7192C213.456 72.5239 213.092 72.3018 212.79 72.0527C212.487 71.8037 212.255 71.5181 212.094 71.1958C211.933 70.8735 211.852 70.5049 211.852 70.0898C211.852 69.6748 211.938 69.2915 212.108 68.9399C212.279 68.5884 212.523 68.2832 212.841 68.0244C213.163 67.7607 213.546 67.5557 213.991 67.4092C214.435 67.2627 214.931 67.1895 215.478 67.1895C216.278 67.1895 216.957 67.3433 217.514 67.6509C218.075 67.9536 218.502 68.3516 218.795 68.8447C219.088 69.333 219.235 69.8555 219.235 70.4121H217.829C217.829 70.0117 217.743 69.6577 217.572 69.3501C217.401 69.0376 217.143 68.7935 216.796 68.6177C216.449 68.437 216.01 68.3467 215.478 68.3467C214.975 68.3467 214.56 68.4224 214.232 68.5737C213.905 68.7251 213.661 68.9302 213.5 69.189C213.344 69.4478 213.266 69.7432 213.266 70.0752C213.266 70.2998 213.312 70.5049 213.405 70.6904C213.502 70.8711 213.651 71.0396 213.852 71.1958C214.057 71.3521 214.315 71.4961 214.628 71.6279C214.945 71.7598 215.324 71.8867 215.763 72.0088C216.369 72.1797 216.891 72.3701 217.331 72.5801C217.77 72.79 218.131 73.0269 218.415 73.2905C218.703 73.5493 218.915 73.8447 219.052 74.1768C219.193 74.5039 219.264 74.875 219.264 75.29C219.264 75.7246 219.176 76.1177 219 76.4692C218.825 76.8208 218.573 77.1211 218.246 77.3701C217.919 77.6191 217.526 77.812 217.067 77.9487C216.613 78.0806 216.105 78.1465 215.543 78.1465C215.05 78.1465 214.564 78.0781 214.086 77.9414C213.612 77.8047 213.18 77.5996 212.79 77.3262C212.404 77.0527 212.094 76.7158 211.859 76.3154C211.63 75.9102 211.515 75.4414 211.515 74.9092H212.921C212.921 75.2754 212.992 75.5903 213.134 75.854C213.275 76.1128 213.468 76.3276 213.712 76.4985C213.961 76.6694 214.242 76.7964 214.555 76.8794C214.872 76.9575 215.202 76.9966 215.543 76.9966C216.037 76.9966 216.454 76.9282 216.796 76.7915C217.138 76.6548 217.396 76.4595 217.572 76.2056C217.753 75.9517 217.843 75.6514 217.843 75.3047Z" fill="#1F1E1E"/>
</svg>
